dong_chris_housing
…
house$soldminusbuilt <- (house$yrsold - house$yearbuilt)
house %<>% select(-yrsold,-yearbuilt) 

house$porcharea <- with(house, openporchsf + enclosedporch +
    `3ssnporch` + screenporch)

house %<>% select(-id) 

house$lotshape <- (house$lotshape == 'Reg') *1

house_by_neighborhood <- house %>% group_by(neighborhood) %>% summarise(avgprc = median(saleprice)) %>% arrange(desc(avgprc))

house_by_neighborhood

## # A tibble: 25 x 2
##    neighborhood avgprc
##           <chr>  <dbl>
##  1      NridgHt 315000
##  2      NoRidge 301500
##  3      StoneBr 278000
##  4       Timber 228475
##  5      Somerst 225500
##  6      Veenker 218000
##  7      Crawfor 200624
##  8      ClearCr 200250
##  9      CollgCr 197200
## 10      Blmngtn 191000
## # ... with 15 more rows
…
house$condition2 <- relevel(factor(house$condition2), ref = "Norm")

house %<>% select(-roofstyle)
house %<>% select(-exterior2nd)

table(house$bldgtype)

## 
##   1Fam 2fmCon Duplex  Twnhs TwnhsE 
##   1220     31     52     43    114

house %>% group_by(housestyle) %>% summarise(avgprc = median(saleprice)) %>% arrange(desc(avgprc))

## # A tibble: 8 x 2
##   housestyle avgprc
##        <chr>  <dbl>
## 1     2.5Fin 194000
## 2     2Story 190000
## 3       SLvl 164500
## 4     1Story 154750
## 5     SFoyer 135960
## 6     2.5Unf 133900
## 7     1.5Fin 132000
## 8     1.5Unf 111250

summary(lm(saleprice~housestyle,data=house))

## 
## Call:
## lm(formula = saleprice ~ housestyle, data = house)
## 
## Residuals:
##     Min      1Q  Median      3Q     Max 
## -170052  -45502  -16519   26556  544948 
## 
## Coefficients:
##                  Estimate Std. Error t value Pr(>|t|)    
## (Intercept)        143117       6134  23.332  < 2e-16 ***
##  [ reached getOption("max.print") -- omitted 7 rows ]
…
house %<>% select(-fence,-poolqc,-garagecond)

house %>% group_by(garagefinish) %>% summarise(avgprc = median(saleprice)) %>% arrange(desc(avgprc))

## # A tibble: 4 x 2
##   garagefinish avgprc
##          <chr>  <dbl>
## 1          Fin 215000
## 2          RFn 190000
## 3          Unf 135000
## 4         None 100000

house$garagefinish <-(house$garagefinish == "Fin") *1
house %<>% select(-garagefinish)

#!diagnosticsoff
house %<>% select(-garageyrblt)

house$garagetype <- relevel(factor(house$garagetype), ref = "None")

house$fireplacequ <-  as.numeric(factor(house$fireplacequ,
    levels = c("None","Po","Fa","TA","Gd","Ex"), labels = 0:5))
cor(house$saleprice,house$fireplacequ); cor(house$saleprice,house$fireplaces)

## [1] 0.5204376

## [1] 0.4669288

house %<>% select(-fireplacequ, -fireplaces)

house$functional <- (house$functional == "Typ") * 1

house$kitchenqual <-  as.numeric(factor(house$kitchenqual,
    levels = c("Po","Fa","TA","Gd","Ex"), labels = 1:5))

cor(house$totrmsabvgrd ,house$saleprice);cor(house$grlivarea ,house$saleprice)

## [1] 0.5337232

## [1] 0.7086245

house %<>% select(-totrmsabvgrd)

fullmodel <- lm(saleprice~sqrt(lotfrontage)+.,data = house)
summary(fullmodel)

## 
## Call:
## lm(formula = saleprice ~ sqrt(lotfrontage) + ., data = house)
## 
## Residuals:
##     Min      1Q  Median      3Q     Max 
## -201143  -10696       0   11118  201143 
## 
## Coefficients: (3 not defined because of singularities)
##                      Estimate Std. Error t value Pr(>|t|)    
## (Intercept)        -7.615e+05  6.021e+04 -12.648  < 2e-16 ***
##  [ reached getOption("max.print") -- omitted 157 rows ]
…
table(house$fullbath)

## 
##   0   1   2   3 
##   9 650 768  33

house$bath <- house$fullbath + house$halfbath + house$bsmtfullbath + house$bsmthalfbath
house %<>% select(-fullbath,-halfbath, -bsmthalfbath, -bsmtfullbath)

house %<>% select(-bath)

house %>% group_by(electrical) %>% summarise(avgprc = median(saleprice)) %>% arrange(desc(avgprc))

## # A tibble: 5 x 2
##   electrical avgprc
##        <chr>  <dbl>
## 1      SBrkr 170000
## 2      FuseA 121250
## 3      FuseF 115000
## 4      FuseP  82000
## 5        Mix  67000

house$electrical <- (house$electrical == "SBrkr") * 1

house %<>% select(-electrical, -centralair)

house$heatingqc <- as.numeric(factor(house$heatingqc,
                  levels = c("Po","Fa","TA","Gd","Ex"), labels = 1:5))

table(house$heatingqc)

## 
##   1   2   3   4   5 
##   1  49 428 241 741

house$heatingqc <- (house$heatingqc == 5) * 1

house %<>% select(-heating)

table(house$bsmtfintype1)

## 
##   0 ALQ BLQ GLQ LwQ 
##  37 220 148 418  74 
##  [ reached getOption("max.print") -- omitted 2 entries ]
…
## [1] 0.5852072

house %<>% select(-bsmtcond)

house %<>% select(-bsmtqual)

table(house$foundation)

## 
## BrkTil CBlock  PConc   Slab  Stone   Wood 
##    146    634    647     24      6      3

house %>% group_by(foundation) %>% summarise(avgprc = median(saleprice)) %>% arrange(desc(avgprc))

## # A tibble: 6 x 2
##   foundation avgprc
##        <chr>  <dbl>
## 1      PConc 205000
## 2       Wood 164000
## 3     CBlock 141500
## 4      Stone 126500
## 5     BrkTil 125250
## 6       Slab 104150

house$foundation <- (house$foundation == "PConc")*1

house$extercond <- as.numeric(factor(house$extercond,
      levels = c("Po","Fa","TA","Gd","Ex"),
      labels = 1:5))
house$exterqual <- as.numeric(factor(house$exterqual,
      levels = c("Po","Fa","TA","Gd","Ex"),
      labels = 1:5))
cor(house$extercond,house$exterqual)

## [1] 0.00918398

house$masvnrtype <- relevel(factor(house$masvnrtype), ref = "None")

table(house$masvnrtype)

## 
##    None  BrkCmn BrkFace   Stone 
##     872      15     445     128

house$masvnrtype <- (house$masvnrtype != "None") * 1

house_by_exterior <- house %>%  group_by(exterior1st) %>% summarise(avgprc = median(saleprice)) %>% arrange(desc(avgprc))

house_by_exterior$exteriorcategory <- as.numeric(factor(cut2(house_by_exterior$avgprc, quantile(house_by_exterior$avgprc)),
       labels = 1:4))

house_by_exterior <- house_by_exterior[,-2]

house %<>% left_join(house_by_exterior, by = "exterior1st") %>% select(-exterior1st)

house %<>% select(-exteriorcategory)

table(house$housestyle)

## 
## 1.5Fin 1.5Unf 1Story 2.5Fin 2.5Unf 
##    154     14    726      8     11 
##  [ reached getOption("max.print") -- omitted 3 entries ]
…
house %<>% select(-mssubclass, -lotfrontage, -porcharea, -extercond,-foundation)

house %>%  group_by(condition1) %>% summarise(avgprc = median(saleprice)) %>% arrange(desc(avgprc))

## # A tibble: 9 x 2
##   condition1 avgprc
##       <fctr>  <dbl>
## 1       RRNn 214000
## 2       PosA 212500
## 3       PosN 200000
## 4       RRNe 190750
## 5       RRAn 171495
## 6       Norm 166500
## 7       RRAe 142500
## 8      Feedr 140000
## 9     Artery 119550

house$condition1 <- (house$condition1 == "Artery" | house$condition1 =="Feedr"|
  house$condition1 == "RRAe")*1
house$condition2 <- (house$condition2 == "PosN") * 1

cor(house$garagequal, house$garagecars)

## [1] 0.5766224

house %<>% select(-garagequal)

fullmodel <- lm(saleprice~.,data = house)
summary(fullmodel)

## 
## Call:
## lm(formula = saleprice ~ ., data = house)
## 
## Residuals:
##     Min      1Q  Median      3Q     Max 
## -197807  -13366     209   12887  202564 
## 
## Coefficients:
##                     Estimate Std. Error t value Pr(>|t|)    
## (Intercept)       -7.724e+05  3.366e+04 -22.948  < 2e-16 ***
##  [ reached getOption("max.print") -- omitted 41 rows ]
…
